<?xml version="1.0" standalone="no"?>
<!DOCTYPE svg PUBLIC "-//W3C//DTD SVG 1.1//EN" "http://www.w3.org/Graphics/SVG/1.1/DTD/svg11.dtd">
<svg xmlns="http://www.w3.org/2000/svg">
<metadata>Copyright (C) 2017 by original authors @ fontello.com</metadata>
<defs>
<font id="fontello" horiz-adv-x="1000" >
<font-face font-family="fontello" font-weight="400" font-stretch="normal" units-per-em="1000" ascent="850" descent="-150" />
<missing-glyph horiz-adv-x="1000" />
<glyph glyph-name="music" unicode="&#xe800;" d="M10-45q-22 57 5 118 37 76 131 107 39 14 78 14 69 0 119-37l0 537q0 23 15 40t36 22l531 94 12 0q24 0 41-16 22-17 22-47l0-656q0-35-16-66-37-76-131-108-39-13-78-13-60 0-107 28t-65 77q-21 57 6 117 37 77 131 108 39 14 78 14 68 0 119-38l0 379-519-91-12 0 0-500q0-36-16-67-37-76-131-107-39-14-78-14-60 0-107 28t-64 77z m57 22q15-41 66-58t107 3 85 62 13 83-66 57-106-2-85-62-14-83z m337 623l531 94 0 93-531-93 0-94z m256-529q15-41 66-58t107 3 85 62 13 83-66 57-107-3-84-61-14-83z" horiz-adv-x="1000" />

<glyph glyph-name="search" unicode="&#xe801;" d="M0-41q0 47 33 80l260 260q-43 82-43 176 0 154 109 265t266 110 266-110 109-266-109-265-266-109q-94 0-176 43l-260-260q-33-33-80-33-45 0-77 32t-32 77z m55 1q0-22 16-39t39-16 40 17l252 252q-45 33-78 78l-252-252q-17-17-17-40z m258 515q0-129 91-221t221-91 221 91 91 221-91 221-221 91-221-91-91-221z m93 0q0 90 65 154t154 65q16 0 16-16t-16-16q-78 0-133-54t-54-133q0-16-16-16t-16 16z" horiz-adv-x="1000" />

<glyph glyph-name="mail" unicode="&#xe802;" d="M0 163l0 406q0 51 36 88t89 37l750 0q53 0 89-37t36-88l0-406q0-53-36-89t-89-36l-750 0q-53 0-89 36t-36 89z m63 0q0-26 18-44t44-19l750 0q25 0 44 19t18 44l-244 183-136-101q-26-20-57-20t-57 20l-136 101z m0 39l218 164-218 164 0-328z m0 367l244-184 27-19 129-98q16-12 37-12t37 12l400 301q0 25-18 44t-44 18l-750 0q-25 0-44-18t-18-44z m656-203l218-164 0 328z" horiz-adv-x="1000" />

<glyph glyph-name="heart" unicode="&#xe803;" d="M0 476q0 122 88 210 84 84 204 86t208-78q88 80 208 78t204-86q88-88 88-210t-88-210q-4-4-346-342-27-27-66-27t-66 27q-2 0-346 342-88 88-88 210z m63 0q0-97 70-165l346-342q21-23 43 0l345 342q70 68 70 165t-70 165q-66 66-160 68t-164-60l-43-39-43 39q-70 62-164 60t-160-68q-70-68-70-165z m93 7q0 55 39 94t94 39q16 0 16-16t-16-16q-41 0-71-29t-30-72q0-16-16-16t-16 16z" horiz-adv-x="1000" />

<glyph glyph-name="star" unicode="&#xe804;" d="M4 457q14 41 57 47l262 39 113 235q19 41 64 41t65-41l113-235 262-39q43-6 56-47t-15-70l-192-191 43-264q8-43-29-68-18-14-41-14-18 0-35 8l-227 123-226-123q-18-8-35-8-24 0-41 14-38 25-30 68l43 264-189 191q-32 29-18 70z m69-21l191-191q25-26 19-61l-44-264 226 123q16 8 35 8t35-8l227-123-45 264q-6 35 20 61l191 191-260 37q-39 6-54 41l-114 234-113-234q-16-35-55-39z" horiz-adv-x="1001" />

<glyph glyph-name="user" unicode="&#xe805;" d="M4-105q-14 43 25 70 119 78 291 116-84 105-119 255-10 55-11 122t23 149 66 138q84 105 223 105t222-105q43-57 67-138t22-149-11-122q-35-150-119-255 172-38 291-116 39-27 26-71t-61-44l-875 0q-21 0-38 13t-22 32z m60 17l875 0q-109 73-267 108l-79 16q-45-30-91-30t-92 30l-78-16q-160-35-268-108z m193 602q-13-103 16-208t96-186l10-14q56-65 123-65t123 65l9 14q67 82 96 186t16 208q-14 113-76 193t-168 80-168-80-77-193z" horiz-adv-x="1003" />

<glyph glyph-name="videocam" unicode="&#xe806;" d="M0 100l0 500q0 39 27 66t67 28l594 0q39 0 66-28t27-66l0-39 84 84q20 17 45 17l27 0q26 0 44-18t19-44l0-500q0-27-19-45t-44-17l-27 0q-25 0-45 17l-84 84 0-39q0-39-27-66t-66-28l-594 0q-39 0-67 28t-27 66z m63 0q0-14 8-22t23-9l594 0q13 0 22 9t9 22l0 500q0 14-9 22t-22 9l-594 0q-14 0-23-9t-8-22l0-500z m687 156l31-31 125-125 31 0 0 500-31 0-156-156 0-188z" horiz-adv-x="1000" />

<glyph glyph-name="camera" unicode="&#xe807;" d="M0 6l0 469q0 35 23 61t55 31l135 23 43 108q12 27 35 43t53 15l312 0q30 0 53-15t35-43l43-108 135-23q33-6 56-31t22-61l0-469q0-39-27-66t-67-28l-812 0q-39 0-67 28t-27 66z m63 0q0-13 8-22t23-9l812 0q14 0 23 9t8 22l0 469q0 27-25 31l-170 28-56 140q-8 20-30 20l-312 0q-22 0-30-20l-56-140-170-28q-25-4-25-31l0-469z m187 282q0 103 73 176t177 74 177-74 73-176-73-177-177-73-177 73-73 177z m63-15q5-77 65-128t137-45 128 65 45 137-66 128-137 45-128-65-44-137z m62 15q0 50 36 87t89 38q16 0 16-16t-16-16q-39 0-66-27t-28-66q0-16-15-16t-16 16z" horiz-adv-x="1000" />

<glyph glyph-name="attach" unicode="&#xe808;" d="M0 99q0 91 64 155l456 451q82 82 199 82t199-82 82-199-82-199l-344-342q-21-23-44-1t1 44l338 340q65 63 65 153t-65 156-155 64-153-64l-454-448q-44-45-44-109t45-110 111-46 109 45l457 451q27 27 27 66t-27 67-66 27-67-27l-341-344q-24-22-45 1t0 44l341 344q47 44 112 44t110-45 46-111-45-111l-457-449q-64-65-155-65t-154 64-64 154z" horiz-adv-x="1000" />

<glyph glyph-name="photo" unicode="&#xe809;" d="M0-25l0 750q0 53 36 89t89 36l687 0q53 0 89-36t36-89l0-750q0-53-36-89t-89-36l-687 0q-53 0-89 36t-36 89z m63 0q0-25 18-44t44-19l687 0q26 0 44 19t19 44l0 750q0 25-19 44t-44 18l-687 0q-25 0-44-18t-18-44l0-750z m62 156l0 563q0 13 9 22t22 9l625 0q14 0 23-9t9-22l0-563q0-13-9-22t-23-9l-625 0q-13 0-22 9t-9 22z m31 0l483 0-88 100-18 21-252 286-125-145 0-262z m0 311l102 117q10 10 23 10t24-10l246-281 82 94q10 9 23 9t24-9l101-112 0 434-625 0 0-252z m344 96q0 39 27 66t67 27 66-27 28-66-28-67-66-27-67 27-27 67z m31 0q0-26 19-44t44-19 44 19 18 44-18 43-44 19-44-19-19-43z m41-284l108-123 101 0 0 82-125 137z" horiz-adv-x="937" />

<glyph glyph-name="lock" unicode="&#xe80a;" d="M0 131l0 219q0 39 27 66t67 28l0 125q0 117 82 199t199 82 199-82 82-199l0-125q39 0 67-28t27-66l0-219q0-117-82-199t-199-82l-188 0q-117 0-199 82t-82 199z m63 0q0-90 64-154t154-65l188 0q90 0 154 65t65 154l0 219q0 14-9 22t-23 9l-562 0q-14 0-23-9t-8-22l0-219z m93 313l63 0 0 125q0 64 46 110t110 46 110-46 46-110l0-125 63 0 0 125q0 90-65 154t-154 64-154-64-65-154l0-125z m94 0l250 0 0 125q0 52-36 89t-89 36-89-36-36-89l0-125z m63-250q0 25 18 44t44 18 44-18 19-44q0-28-22-84-14-41-41-41t-41 41q-21 56-21 84z" horiz-adv-x="750" />

<glyph glyph-name="thumbs-up" unicode="&#xe80b;" d="M0-56l0 500q0 39 27 66t67 28l94 0q32 0 60-24 12 6 33 16 123 64 125 226 0 39 28 67t66 27q57 0 105-64t49-147q0-66-8-103 237-6 266-14 43-12 66-43t22-63l0-23q-2-39-27-68 17-34 11-75-7-54-41-86 16-37 0-83-17-59-52-83 7-27 0-54-6-18-14-34-33-60-111-60l-172 0q-92 0-186 21-92 22-127 30l-2 0q0 2-3 2l-4 0 0 2q-28-55-84-55l-94 0q-39 0-67 27t-27 67z m63 0q0-14 8-23t23-9l94 0q13 0 22 9t9 23l0 500q0 13-9 22t-22 9l-94 0q-14 0-23-9t-8-22l0-500z m31 47q0 19 13 33t34 14 33-14 14-33-14-34-33-13-34 13-13 34z m31 0q0-16 16-16t15 16-15 15-16-15z m125 3q0-23 27-27 22-6 145-35 88-20 172-20l172 0q41 0 56 28 6 15 8 23 6 12-2 28t-29 15l-49 0q-16 0-16 16t16 16l51 0q31 0 49 10t22 20 11 30q21 65-39 65l-63 0q-15 0-15 15t15 16l74 0q57 0 69 66 2 22-9 40t-42 19l-61 0q-15 0-15 15t15 16l63 0q61 0 62 45l0 21q0 38-37 47-45 12-337 12 19 59 24 84t5 80q0 57-32 103t-60 45q-31 0-31-31-2-92-46-173t-142-122q-2 0-4-1l-2-1q-25-7-25-33l0-432z" horiz-adv-x="1000" />

<glyph glyph-name="pencil" unicode="&#xe80c;" d="M0-41q0 4 1 8t1 8 1 8 1 6l0 2 74 267q10 31 31 53l325 324 0 2 2 2 150 152q60 59 146 59 106 0 186-80 74-74 81-171t-58-161l-476-481q-24-23-55-31l-263-70-3-1q-3-1-7-2t-9-1-10-1-9-1q-45 0-77 32t-32 77z m63 0q0-19 13-33t33-14q6 0 22 4l115 32q4 58-43 105-45 45-105 43l-32-119q-3-14-3-18z m44 168q67-2 118-52t52-120l116 30 11 6q41 47 34 115t-61 121q-51 49-115 59t-112-24q-7-10-11-21z m131 225q45-2 90-20l295 295q-88 22-144-33z m119-35q38-20 65-45 21-22 41-55l297 299q-16 31-39 55-30 29-67 45z m122-129q17-41 21-82l0-24 242 245 0 2q61 60 31 156z m101 508q106 0 186-80 70-73 78-166l0-22 52 55q45 45 41 111-5 74-62 131-63 62-143 62-60 0-101-41z" horiz-adv-x="1000" />

<glyph glyph-name="comment" unicode="&#xe80d;" d="M0 413q0 156 147 265t353 109 354-109 146-265-146-266-354-109q-47 0-96 7-29-35-89-78t-122-55l-9 0q-12 0-20 8t-8 20q0 6 2 12 0 1 13 21t18 29 13 30 13 36 4 32l0 2q-102 53-160 134t-59 177z m63 0q0-75 48-143t137-111q33-18 33-57l0-6q0-41-21-92 60 37 95 80 18 24 49 24 4 0 8-2 45-6 88-6 182 0 310 92t127 221-127 220-310 92-310-92-127-220z m93 0q0 89 102 154t242 64q16 0 16-15t-16-16q-125 0-219-57t-93-130q0-16-16-16t-16 16z" horiz-adv-x="1000" />

<glyph glyph-name="location" unicode="&#xe80e;" d="M0 475q0 156 109 266t266 109 266-109 109-266q0-78-28-160t-85-166-101-141-110-133q-20-25-49-25l-4 0q-29 0-49 25-66 77-110 133t-101 141-85 166-28 160z m63 0q0-72 28-150t85-161 95-128 100-120l2 0q2-2 2-4l4 4q62 73 100 120t94 128 86 161 29 150q0 129-92 221t-221 91-221-91-91-221z m125 8q0 78 54 133t133 54 133-54 55-133-55-133-133-55-133 55-54 133z m31 0q0-65 46-111t110-45 110 45 46 111-46 110-110 46-110-46-46-110z" horiz-adv-x="750" />

<glyph glyph-name="trash" unicode="&#xe80f;" d="M0 569l0 68q2 37 29 63t65 25l94 0 0 31q0 39 27 67t66 27l313 0q39 0 66-27t28-67l0-31 93 0q37 0 65-25t29-63l0-68q0-26-19-44t-44-19l0-531q0-53-36-89t-88-36l-500 0q-53 0-89 36t-36 89l0 531q-26 0-44 19t-19 44z m63 0l749 0 0 62q0 14-8 23t-23 8l-687 0q-14 0-23-8t-8-23l0-62z m62-594q0-25 19-44t44-19l500 0q25 0 43 19t19 44l0 531-625 0 0-531z m63 31l0 407q0 13 8 22t23 9l62 0q14 0 23-9t9-22l0-407q0-13-9-22t-23-9l-62 0q-14 0-23 9t-8 22z m31 0l62 0 0 407-62 0 0-407z m31 719l375 0 0 31q0 14-9 23t-22 8l-313 0q-13 0-22-8t-9-23l0-31z m125-719l0 407q0 13 9 22t22 9l63 0q13 0 22-9t9-22l0-407q0-13-9-22t-22-9l-63 0q-13 0-22 9t-9 22z m31 0l63 0 0 407-63 0 0-407z m157 0l0 407q0 13 8 22t23 9l62 0q14 0 23-9t9-22l0-407q0-13-9-22t-23-9l-62 0q-14 0-23 9t-8 22z m31 0l62 0 0 407-62 0 0-407z" horiz-adv-x="875" />

<glyph glyph-name="doc" unicode="&#xe810;" d="M0-25l0 625q0 39 27 66t67 28l31 0 0 62q0 39 27 67t67 27l687 0q39 0 67-27t27-67l0-781q0-53-36-89t-89-36l-750 0q-53 0-89 36t-36 89z m63 0q0-25 18-44t44-19l750 0q25 0 44 19t18 44l0 781q0 14-8 23t-23 8l-687 0q-14 0-23-8t-8-23l0-750q0-13-9-22t-23-9-22 9-9 22l0 625-31 0q-14 0-23-9t-8-22l0-625z m187 16q0 15 16 15l250 0q15 0 15-15t-15-16l-250 0q-16 0-16 16z m0 93q0 16 16 16l250 0q15 0 15-16t-15-15l-250 0q-16 0-16 15z m0 94q0 16 16 16l250 0q15 0 15-16 0-6-5-11t-10-4l-250 0q-16 0-16 15z m0 94q0 16 16 16l593 0q16 0 16-16t-16-16l-593 0q-16 0-16 16z m0 94q0 15 16 15l593 0q16 0 16-15t-16-16l-593 0q-16 0-16 16z m0 109l0 219q0 13 9 22t22 9l219 0q14 0 22-9t9-22l0-219q0-14-9-22t-22-9l-219 0q-13 0-22 9t-9 22z m63 31l156 0 0 156-156 0 0-156z m281-515q0 15 15 15l250 0q16 0 16-15t-16-16l-250 0q-15 0-15 16z m0 93q0 16 15 16l250 0q16 0 16-16t-16-15l-250 0q-15 0-15 15z m0 94q0 16 15 16l250 0q16 0 16-16 0-6-5-11t-11-4l-250 0q-15 0-15 15z m0 281q0 16 15 16l250 0q16 0 16-16t-16-15l-250 0q-15 0-15 15z m0 94q0 16 15 16l250 0q16 0 16-16t-16-15l-250 0q-15 0-15 15z m0 94q0 15 15 15l250 0q16 0 16-15t-16-16l-250 0q-15 0-15 16z" horiz-adv-x="1000" />

<glyph glyph-name="cog" unicode="&#xe811;" d="M0 307l0 86q0 21 15 39t36 22l96 19q5 20 15 41l-53 80q-13 20-10 42t18 38l59 59q19 19 45 19 19 0 35-11l80-53q21 10 41 16l20 95q3 22 21 36t39 15l86 0q21 0 39-15t22-36l19-95q20-6 41-16l80 53q16 11 35 11 26 0 45-19l59-59q17-15 19-38t-11-42l-53-80q10-21 16-41l95-19q22-4 36-22t15-39l0-86q0-21-15-39t-36-21l-95-20q-6-20-16-41l53-80q13-20 11-42t-19-38l-59-59q-19-19-45-19-19 0-35 11l-80 53q-21-10-41-16l-19-95q-4-22-22-36t-39-15l-86 0q-21 0-39 14t-21 37l-20 95q-20 6-41 16l-80-53q-16-11-35-11-26 0-45 19l-59 59q-15 15-18 38t10 42l53 80q-10 21-15 41l-96 20q-22 3-36 21t-15 39z m63 0l95-19q35-6 47-40 6-17 14-35 15-31-4-60l-55-82 61-61 82 55q15 10 33 10 16 0 27-6 18-8 35-14 34-12 40-47l19-96 86 0 20 96q5 35 39 47 17 6 35 14 11 6 27 6 18 0 33-10l82-55 61 61-55 82q-19 29-4 60 8 18 14 35 12 34 47 40l95 19 0 86-95 20q-35 5-47 39-6 17-14 35-15 31 4 60l55 82-61 61-82-55q-15-10-33-10-16 0-27 6-18 8-35 14-34 12-39 47l-20 95-86 0-19-95q-6-35-40-47-17-6-35-14-11-6-27-6-18 0-33 10l-82 55-61-61 55-82q19-29 4-60-8-18-14-35-12-34-47-39l-95-20 0-86z m218 43q0 90 65 154t154 65 154-65 65-154-65-154-154-65-154 65-65 154z m28 0q0-80 55-136t136-55 136 55 55 136-55 136-136 55-136-55-55-136z m66 0q0 53 36 89t89 36 89-37 36-89-36-88-89-36-89 36-36 89z m31 0q0-39 28-66t66-28 66 28 28 66-28 66-66 28-66-28-28-66z" horiz-adv-x="1000" />

<glyph glyph-name="params" unicode="&#xe812;" d="M0 538q0 76 63 124l0 94q0 39 27 67t66 27 67-27 27-67l0-94q63-48 63-124t-63-125l0-469q0-39-27-67t-67-27-66 27-27 67l0 469q-63 48-63 125z m63 0q0-12 3-26l2-6q4-13 12-23 8-12 20-21t25-12q16-6 31-6t32 6q13 4 25 13 12 8 19 20 8 10 12 23l2 6q4 14 4 26t-4 25q-2 4-2 6-4 13-12 23-7 12-19 21t-25 12q-16 6-32 6t-31-6q-14-4-25-13-10-8-20-20-8-10-12-23l-2-6q-3-14-3-25z m62-594q0-14 9-23t22-9 23 9 9 23l0 441q-16-4-32-4t-31 4l0-441z m0 746q16 4 31 4t32-4l0 66q0 14-9 23t-23 8-22-8-9-23l0-66z m219-527q0 76 62 125l0 468q0 39 28 67t66 27 66-27 28-67l0-468q62-49 62-125t-62-125l0-94q0-39-28-67t-66-27-66 27-28 67l0 94q-62 48-62 125z m62 0q0-12 4-26l2-6q4-13 12-23 8-12 19-21t26-12q15-6 31-6t31 6q14 4 26 13 11 8 19 20 8 10 12 23 0 2 2 6 4 14 4 26t-4 25l-2 6q-4 13-12 23-8 12-19 20-12 10-26 13-15 6-31 6t-31-6q-14-3-26-13-9-8-19-20-8-10-12-23l-2-6q-4-14-4-25z m63-219q0-14 9-23t22-9 22 9 9 23l0 66q-15-4-31-4t-31 4l0-66z m0 371q15 4 31 4t31-4l0 441q0 14-9 23t-22 8-22-8-9-23l0-441z m219 223q0 76 62 124l0 94q0 39 27 67t67 27 66-27 27-67l0-94q63-48 63-124t-63-125l0-469q0-39-27-67t-66-27-67 27-27 67l0 469q-62 48-62 125z m62 0q0-12 4-26l2-6q4-13 12-23 7-12 19-21t25-12q16-6 32-6t31 6q14 4 25 13 12 8 20 20 8 10 12 23 0 2 2 6 3 14 3 26t-3 25l-2 6q-4 13-12 23-8 12-20 20-11 9-25 13-16 6-31 6t-32-6q-13-4-25-13-12-8-19-20-8-10-12-23l-2-6q-4-14-4-25z m62-594q0-14 9-23t23-9 22 9 9 23l0 441q-16-4-31-4t-32 4l0-441z m0 746q16 4 32 4t31-4l0 66q0 14-9 23t-22 8-23-8-9-23l0-66z" horiz-adv-x="1000" />

<glyph glyph-name="calendar" unicode="&#xe813;" d="M0-66l0 738q0 35 24 60t60 24l135 0 0 63q0 13 9 22t22 9 22-9 9-22l0-63 188 0 0 63q0 13 9 22t22 9 22-9 9-22l0-63 188 0 0 63q0 13 9 22t22 9 22-9 9-22l0-63 135 0q35 0 60-24t24-60l0-738q0-35-24-60t-60-24l-832 0q-35 0-60 24t-24 60z m63 0q0-10 5-16t16-6l832 0q10 0 16 6t5 16l0 738q0 10-5 16t-16 6l-135 0 0-63q0-13-9-22t-22-9-22 9-9 22l0 63-188 0 0-63q0-13-9-22t-22-9-22 9-9 22l0 63-188 0 0-63q0-13-9-22t-22-9-22 9-9 22l0 63-135 0q-10 0-16-6t-5-16l0-738z m156 135l0 94 125 0 0-94-125 0z m0 156l0 94 125 0 0-94-125 0z m0 156l0 94 125 0 0-94-125 0z m219-312l0 94 125 0 0-94-125 0z m0 156l0 94 125 0 0-94-125 0z m0 156l0 94 125 0 0-94-125 0z m218-312l0 94 125 0 0-94-125 0z m0 156l0 94 125 0 0-94-125 0z m0 156l0 94 125 0 0-94-125 0z" horiz-adv-x="1000" />

<glyph glyph-name="lightbulb" unicode="&#xe814;" d="M0 506q0 143 101 243t243 101 243-101 101-243q0-54-30-121t-71-140-56-116q-15-39-31-94t-24-82-27-53-42-39-63-11-64 11-41 39-26 53-25 82-32 94q-13 43-55 117t-72 139-29 121z m63 0q0-64 82-213 37-64 52-99l293 0q16 35 53 99 82 151 82 213 0 117-82 199t-199 82-199-82-82-199z m93 0q0 78 55 133t133 55q15 0 15-16t-15-16q-65 0-111-45t-45-111q0-15-16-15t-16 15z m67-375q11-33 19-60l213 27q2 12 10 33l-242 0z m29-90q10-35 18-60l154 19q6 16 12 38 2 5 4 15t3 12z m29-89q12-26 25-33t38-7q29 0 43 10t27 45z" horiz-adv-x="687" />

<glyph glyph-name="down-dir" unicode="&#xe815;" d="M571 457q0-14-10-25l-250-250q-11-11-25-11t-25 11l-250 250q-11 11-11 25t11 25 25 11h500q14 0 25-11t10-25z" horiz-adv-x="571.4" />

<glyph glyph-name="up-dir" unicode="&#xe816;" d="M571 171q0-14-10-25t-25-10h-500q-15 0-25 10t-11 25 11 26l250 250q10 10 25 10t25-10l250-250q10-11 10-26z" horiz-adv-x="571.4" />

<glyph glyph-name="left-dir" unicode="&#xe817;" d="M357 600v-500q0-14-10-25t-26-11-25 11l-250 250q-10 11-10 25t10 25l250 250q11 11 25 11t26-11 10-25z" horiz-adv-x="357.1" />

<glyph glyph-name="right-dir" unicode="&#xe818;" d="M321 350q0-14-10-25l-250-250q-11-11-25-11t-25 11-11 25v500q0 15 11 25t25 11 25-11l250-250q10-10 10-25z" horiz-adv-x="357.1" />

<glyph glyph-name="heart-1" unicode="&#xe819;" d="M790 644q70-64 70-156t-70-158l-360-330-360 330q-70 66-70 158t70 156q62 58 151 58t153-58l56-52 58 52q62 58 150 58t152-58z" horiz-adv-x="860" />

<glyph glyph-name="heart-empty" unicode="&#xe81a;" d="M790 642q70-64 70-156t-70-156l-360-330-360 330q-70 64-70 156t70 156q64 58 152 58t150-58l58-52 56 52q64 58 152 58t152-58z m-54-260q42 40 42 104 0 66-38 100-38 38-102 38-52 0-104-48l-104-92-106 92q-48 48-102 48-64 0-104-38-38-36-38-100 0-66 44-104l306-286z" horiz-adv-x="860" />

<glyph glyph-name="star-1" unicode="&#xe81b;" d="M440 790l120-336 320 0-262-196 94-348-272 208-272-208 94 348-262 196 320 0z" horiz-adv-x="880" />

<glyph glyph-name="star-empty" unicode="&#xe81c;" d="M880 454l-262-196 94-348-272 208-272-208 94 348-262 196 320 0 120 336 120-336 320 0z m-440-238l150-124-62 178 144 114-176-4-56 202-54-202-176 4 142-114-62-178z" horiz-adv-x="880" />

<glyph glyph-name="user-1" unicode="&#xe81d;" d="M736 128q204-72 204-122l0-106-940 0 0 106q0 50 204 122 94 34 128 69t34 95q0 22-22 49t-32 73q-2 12-9 18t-14 8-14 17-9 43q0 16 5 26t9 12l4 4q-8 50-12 88-4 54 41 112t157 58 158-58 40-112l-12-88q18-8 18-42-2-28-9-43t-14-17-14-8-9-18q-8-48-31-74t-23-48q0-60 35-95t127-69z" horiz-adv-x="940" />

<glyph glyph-name="users" unicode="&#xe81e;" d="M1000-90l-224 0 0 150q0 54-30 81t-154 89q40 30 40 84 0 16-13 33t-19 51q-2 8-14 16t-14 42q0 24 12 30-6 34-8 60-4 38 23 78t95 40 96-40 24-78l-8-60q12-6 12-30-2-34-14-42t-14-16q-6-34-19-51t-13-33q0-42 21-66t77-48q112-46 130-80 6-8 9-61t5-101l0-48z m-488 262q182-78 182-124l0-138-694 0 0 184q0 44 84 78 76 32 104 64t28 88q0 20-19 44t-25 68q-2 10-18 22t-20 56q0 14 3 23t7 13l4 2q-6 46-10 82-4 50 33 103t127 53 127-53 33-103l-10-82q14-8 14-38-4-44-20-56t-18-22q-6-44-25-68t-19-44q0-56 28-88t104-64z" horiz-adv-x="1000" />

<glyph glyph-name="user-add" unicode="&#xe81f;" d="M620 128q180-64 180-122l0-106-800 0 0 202q36 14 82 26 94 34 129 69t35 95q0 22-23 48t-31 74q-2 12-23 25t-25 61q0 16 5 26t9 12l4 4q-8 50-12 88-6 54 40 112t160 58 160-58 42-112l-14-88q18-8 18-42-2-28-9-43t-14-17-14-8-9-18q-10-46-33-73t-23-49q0-60 36-95t130-69z m230 272l150 0 0-100-150 0 0-150-100 0 0 150-150 0 0 100 150 0 0 150 100 0 0-150z" horiz-adv-x="1000" />

<glyph glyph-name="dot-2" unicode="&#xe820;" d="M110 460q46 0 78-32t32-78q0-44-32-77t-78-33-78 32-32 78 32 78 78 32z m350 0q46 0 78-32t32-78q0-44-33-77t-77-33q-46 0-78 32t-32 78 32 78 78 32z" horiz-adv-x="570" />

<glyph glyph-name="dot-3" unicode="&#xe821;" d="M110 460q46 0 78-32t32-78q0-44-32-77t-78-33-78 33-32 77q0 46 32 78t78 32z m350 0q46 0 78-32t32-78q0-44-33-77t-77-33-77 33-33 77q0 46 32 78t78 32z m350 0q46 0 78-32t32-78q0-44-32-77t-78-33-78 33-32 77q0 46 32 78t78 32z" horiz-adv-x="920" />

<glyph glyph-name="bell" unicode="&#xe822;" d="M509-96q0 8-9 8-33 0-57 24t-23 57q0 9-9 9t-9-9q0-41 29-70t69-28q9 0 9 9z m-372 160h726q-149 168-149 465 0 28-13 58t-39 58-67 45-95 17-95-17-67-45-39-58-13-58q0-297-149-465z m827 0q0-29-21-50t-50-21h-250q0-59-42-101t-101-42-101 42-42 101h-250q-29 0-50 21t-21 50q28 24 51 49t47 67 42 89 27 115 11 145q0 84 66 157t171 89q-5 10-5 21 0 23 16 38t38 16 38-16 16-38q0-11-5-21 106-16 171-89t66-157q0-78 11-145t28-115 41-89 48-67 50-49z" horiz-adv-x="1000" />

<glyph glyph-name="volume-off" unicode="&#xe823;" d="M766 730q15-15 15-36t-15-36l-141-142 0-447q0-54-29-84t-68-30q-35 0-70 24l-139 92q-36 25-99 40l-131-131q-15-15-36-15-23 0-38 15t-15 37 15 37l80 80q-42 17-69 57t-26 87l0 103q0 65 46 111t110 46q37 0 85 14t78 34l139 93q35 24 70 24 58 0 83-53l82 80q15 15 36 15t37-15z m-251-137l-99-65 0-110 105 105 0 67q0 1-1 4l0 2q-2-2-5-3z m-411-212l0-103q0-22 15-37t37-16q27 0 62-6l147 147 0 127q-44-25-103-42t-106-17q-21 0-37-16t-15-37z m172-177q50-15 89-39l0 128z m244-141l0 2q1 3 1 4l0 380-105-104 0-214 99-65q3-1 5-3z" horiz-adv-x="781" />

<glyph glyph-name="volume-low" unicode="&#xe824;" d="M528 724q38 0 68-29t29-83l0-522q0-53-29-83t-68-31q-35 0-70 24l-139 93q-29 20-78 35t-85 15q-65 0-110 45t-46 111l0 104q0 65 46 110t110 46q37 0 85 14t78 35l139 92q35 24 70 24z m-163-537l0 327q-44-25-103-42t-106-17q-21 0-37-15t-15-37l0-104q0-21 15-37t37-15q47 0 106-18t103-42z m156-97l0 522q0 1-1 3l0 3q-2-3-5-4l-99-65 0-396 99-65q3-1 5-4l0 3q1 2 1 3z" horiz-adv-x="625" />

<glyph glyph-name="volume-middle" unicode="&#xe825;" d="M528 724q38 0 68-29t29-83l0-522q0-53-29-83t-68-31q-35 0-70 24l-139 93q-29 20-78 35t-85 15q-65 0-110 45t-46 111l0 104q0 65 46 110t110 46q37 0 85 14t78 35l139 92q35 24 70 24z m-372-477q47 0 106-18t103-42l0 327q-44-25-103-42t-106-17q-21 0-37-15t-15-37l0-104q0-21 15-37t37-15z m365-157l0 522q0 1-1 3l0 3q-2-3-5-4l-99-65 0-396 99-65q3-1 5-4l0 3q1 2 1 3z m172 402q15 15 36 15t37-15q59-59 59-142 0-81-59-140-16-16-37-16-20 0-36 16-15 15-15 37t15 36q27 27 27 67t-27 68q-15 15-15 37t15 37z" horiz-adv-x="825" />

<glyph glyph-name="edit" unicode="&#xe826;" d="M966 671q24-23 24-55t-24-55l-185-185 0-469q0-21-15-36t-37-16l-676 0q-22 0-37 16t-16 36l0 677q0 21 16 37t37 15l468 0 185 185q24 24 55 24t55-24z m-523-486l327 328-112 112-328-327z m-134 69l4-86 88-4z m369-295l0 312-167-160q-20-20-63-33t-80-14l-159 0 0 159q0 41 11 82t31 61l165 167-312 0 0-574 574 0z m130 590l67 67-114 114-67-67z" horiz-adv-x="990" />

<glyph glyph-name="pen" unicode="&#xe827;" d="M756 846q96 0 166-70t70-167q0-27-9-62 25-78-31-134l-234-235q-37-37-92-37l-4 0-113-113q-31-31-78-50-13-5-362-121-10-3-16-3-26 0-42 21t-8 47q116 349 121 361 19 48 52 80 413 413 415 414 71 69 165 69z m-382-778l-158 159q-3-8-15-44t-22-62l89-89q44 14 106 36z m-213-2q-9-25-27-78l79 26z m401 162q-15 23-13 50t22 48l192 192-142 143-372-373q-6-6-10-11l184-184q1 1 6 4t7 5z m316 259q18 17-1 35t-35 1l-235-234q-13-12-5-28t24-17q11 0 18 8z m-79 67q39 39 85 24 4 15 4 31 0 54-39 93-41 39-97 37t-95-42z" horiz-adv-x="992" />

<glyph glyph-name="pencil-1" unicode="&#xe828;" d="M938 605q22-22 22-55t-22-55l-570-570q-22-21-60-38t-73-17l-235 0 0 234q0 35 17 74t38 60l570 570q23 22 55 22t55-22z m-794-426l65-64 431 433-64 63z m91-205q14 0 33 8-10 10-27 26t-50 50-56 56l-22 22q-9-21-9-32l0-78 52-52 79 0z m74 40l432 432-63 64-433-431z m469 469l67 67-165 165-67-66z" horiz-adv-x="960" />

<glyph glyph-name="tag" unicode="&#xe829;" d="M365 792q-109 0-185-76t-76-184 76-184l159-155 286-286 365 365q-369 369-441 444-76 76-184 76z m0 105q151 0 259-107 109-113 440-444 30-31 30-74t-30-74l-365-365q-30-30-74-30t-74 30l-270 270q-8 7-18 15l-157 157q-106 106-106 257t106 258q108 107 259 107z m0-286q-32 0-56-23t-23-56 23-55 56-22 55 22 23 55-23 56-55 23z m0 51q54 0 92-38t38-92-38-92-92-38-92 38-38 92 38 92 92 38z" horiz-adv-x="1094" />

<glyph glyph-name="tags" unicode="&#xe82a;" d="M1011 502q30-32 30-74t-30-73l-56-56 5-5q30-31 29-74t-30-73l-364-366q-30-30-74-30t-73 30q-227 227-342 338-106 106-106 258 0 102 54 188-8 165 105 278 106 106 257 106 153 0 259-106z m-490-647l364 365-336 340q-76 77-184 77-109 0-185-77t-76-183 76-184q115-111 341-338z m102 779l258-261 57 56-337 340q-76 76-185 76-107 0-183-76-35-35-54-79 86 52 186 52 150 0 258-108z m-258-179q-32 0-56-23t-23-55 23-55 56-23 55 23 23 55-23 55-55 23z m0 52q54 0 92-39t38-91-38-92-92-38-92 38-38 92 38 91 92 39z" horiz-adv-x="1041" />

<glyph glyph-name="bookmark" unicode="&#xe82b;" d="M573 846q65 0 110-46t46-111l0-730q0-51-25-78t-58-27q-42 0-80 38l-165 166q-15 15-37 15t-36-15l-165-166q-40-39-82-38t-65 39q-16 29-16 66l0 730q0 65 46 111t110 46l417 0z m-417-105q-21 0-37-15t-15-37l0-516 127 118q55 51 133 51t134-51l127-118 0 516q0 22-16 37t-36 15l-417 0z m319-609l150-150 0 120-162 150q-40 36-98 36t-97-36l-164-150 0-120 150 150q45 45 111 45 65 0 110-45z" horiz-adv-x="729" />

<glyph glyph-name="flag" unicode="&#xe82c;" d="M640 693q25 25 57 11t32-47l0-418q0-21-15-36-80-80-193-80t-193 80q-47 46-110 50t-114-36l0-238q0-21-15-37t-36-15-37 15-16 37l0 678q0 21 15 36 80 80 193 80t193-80q50-50 120-50t119 50z m-312-74q-47 47-110 50t-114-36l0-119q67 33 145 20t134-67q48-49 117-56t125 28l0 122q-72-32-156-16t-141 74z m73-342q47-46 110-50t114 36l0 119q-54-25-104-25-100 0-175 72-48 49-117 56t-125-29l0-120q52 21 105 21 112 0 192-80z" horiz-adv-x="729" />

<glyph glyph-name="flag-filled" unicode="&#xe82d;" d="M640 693q25 25 57 11t32-47l0-418q0-21-15-36-80-80-193-80t-193 80q-47 46-110 50t-114-36l0-238q0-21-15-37t-36-15-37 15-16 37l0 678q0 21 15 36 80 80 193 80t193-80q50-50 120-50t119 50z" horiz-adv-x="729" />

<glyph glyph-name="thumbs-up-1" unicode="&#xe82e;" d="M811 470q38-13 58-51t15-77l-35-312q-6-39-32-70t-58-44q-5-1-26-9t-29-11-30-7-45-6-56-2q-83 0-174 26t-130 56q-1 1-3 2t-4 4-3 4q-46-40-103-40-65 0-110 45t-46 111l0 313q0 65 46 110t110 46q77 0 124-63 44 44 64 85t21 108q0 54 38 92t92 39 92-39 38-92q0-94-16-188 170-17 202-30z m-655-432q22 0 37 15t16 36l0 313q0 21-16 36t-37 16-37-16-15-36l0-313q0-21 15-36t37-15z m590 7l35 312q3 12-6 16-15 4-107 15t-119 14l-69-10 16 73q25 117 25 223 0 10-8 18t-18 8-18-8-8-18q0-54-11-98t-32-78-37-51-40-43q-36-36-36-69l0-260q0-30 18-44 24-17 99-38t143-22q26 0 45 1t35 5 23 5 23 9 24 9q6 3 14 13t9 18z" horiz-adv-x="885" />

<glyph glyph-name="thumbs-down" unicode="&#xe82f;" d="M729 768q65 0 111-46t45-110l0-313q0-65-45-111t-111-45q-76 0-124 62-42-42-63-84t-21-109q0-54-38-92t-92-39-92 39-39 92q0 95 16 188-173 19-201 29-37 14-59 52t-15 78l35 311q7 38 32 70t58 44q5 1 26 9t29 11 30 8 45 6 57 1q82 0 174-26t131-55q2-1 5-5t3-5q47 40 103 40z m-313-755q0 54 11 97t33 78 36 52 40 43q37 36 37 69l0 260q0 11-7 25t-12 18q-24 18-99 39t-142 21q-27 0-46-1t-35-4-23-6-23-9-23-8q-7-3-15-13t-9-19l-34-311q-2-12 5-16 15-4 108-15t118-14l69 10-15-74q-25-122-25-222 0-10 8-18t17-9 18 9 8 18z m365 286l0 313q0 21-15 36t-37 15-36-15-15-36l0-313q0-21 15-37t36-15 37 15 15 37z" horiz-adv-x="885" />

<glyph glyph-name="comment-1" unicode="&#xe830;" d="M781 662l-625 0q-21 0-37-15t-15-36l0-365q0-21 15-37t37-16l157 0 0-8 8 8 460 0q22 0 37 16t16 37l0 365q0 21-16 36t-37 15z m0 105q65 0 111-46t46-110l0-365q0-65-46-111t-111-45l-416 0-156-157 0 157-53 0q-65 0-110 45t-46 111l0 365q0 65 46 110t110 46l625 0z" horiz-adv-x="938" />

<glyph glyph-name="chat" unicode="&#xe831;" d="M834 767q65 0 110-46t46-110l0-365q0-65-46-111t-110-45l-469 0-156-157 0 157-53 0q-65 0-110 45t-46 111l0 365q0 65 46 110t110 46l678 0z m51-521l0 365q0 21-15 37t-36 15l-678 0q-21 0-37-15t-15-37l0-365q0-21 15-36t37-15l678 0q21 0 36 15t15 36z m-625 79q-42 0-73 30t-31 73 31 74 73 30q44 0 74-31t31-73-31-73-74-30z m0 156q-21 0-36-16t-15-37 15-36 36-15 37 15 16 36-16 37-37 16z m235-156q-44 0-74 30t-31 73 31 73 74 31q43 0 73-30t31-74-31-73-73-30z m0 156q-21 0-37-16t-15-37 15-36 37-15 37 15 16 36-16 37-37 16z m234-156q-44 0-74 30t-30 73 30 74 74 30 74-31 31-73-31-73-74-30z m0 156q-21 0-36-16t-15-37 15-36 36-15 37 15 15 36-15 37-37 16z" horiz-adv-x="990" />

<glyph glyph-name="chat-alt" unicode="&#xe832;" d="M1094 688q65 0 110-45t46-111l0-364q0-65-46-110t-110-46l-53 0 0-156-156 156-416 0q-65 0-111 46t-45 110l-157-156 0 156q-65 0-110 46t-46 111l0 363q0 65 46 111t110 46l625 0q65 0 111-46t46-111l156 0z m-938-416l209 0 0 234q0 54 38 92t92 39l339 0 0 51q0 22-16 37t-37 16l-625 0q-21 0-37-16t-15-37l0-363q0-22 15-37t37-16z m990-104l0 364q0 21-15 37t-37 16l-599 0q-32 0-56-24t-23-55l0-338q0-21 16-37t37-15l625 0q21 0 37 15t15 37z" horiz-adv-x="1250" />

<glyph glyph-name="warning-empty" unicode="&#xe833;" d="M514 701q-49 0-81-55l-308-513q-32-55-11-95t87-40l625 0q65 0 87 40t-12 95l-307 513q-33 55-80 55z m0 105q106 0 169-107l308-513q63-105 12-199-52-93-177-93l-625 0q-123 0-177 93-53 92 11 199l309 513q62 107 170 107z m-69-652q0 69 69 69 67 0 67-69 0-67-67-67-69 0-69 67z m146 313q0-14-6-29l-71-179q-44 108-73 179-6 15-6 29 0 32 23 55t56 24 55-24 22-55z" horiz-adv-x="1026" />

<glyph glyph-name="warning" unicode="&#xe834;" d="M991 186q64-107 12-199-52-93-177-93l-625 0q-126 0-177 93-53 92 11 199l309 513q62 107 170 107 106 0 169-107z m-477-112q34 0 57 23t23 57-23 58-57 24-58-24-23-58 23-57 58-23z m85 387q5 13 5 32 0 38-26 64t-64 27-65-27-26-64q0-17 6-34l72-178q5-9 13-9t11 9q74 178 74 180z" horiz-adv-x="1026" />

<glyph glyph-name="contacts" unicode="&#xe835;" d="M834 819q65 0 110-46t46-110l0-625q0-65-46-111t-110-46l-574 0q-65 0-111 46t-45 111l0 52-51 0q-22 0-37 15t-16 37 16 36 37 16l51 0 0 104-51 0q-22 0-37 15t-16 37 16 37 37 16l51 0 0 104-51 0q-22 0-37 15t-16 37 16 36 37 15l51 0 0 53q0 65 45 110t111 46l574 0z m-625-156l0-53 51 0 0 105q-21 0-36-15t-15-37z m0-156l0-104 51 0 0 104-51 0z m0-209l0-104 51 0 0 104-51 0z m0-260q0-21 15-37t36-16l0 105-51 0 0-52z m676 0l0 625q0 21-15 37t-36 15l-521 0 0-730 521 0q21 0 36 16t15 37z m-416 390q0 105 104 105 105 0 105-105 0-104-105-104-104 0-104 104z m104-148q56 0 93-22t37-53q0-15-38-26t-92-11q-59 0-95 11t-35 26q0 30 35 53t95 22z" horiz-adv-x="990" />

<glyph glyph-name="vcard" unicode="&#xe836;" d="M990-66l-834 0q-65 0-110 46t-46 110l0 520q0 65 46 111t110 46l834 0q65 0 111-46t45-111l0-520q0-65-45-110t-111-46z m-834 729q-21 0-37-16t-15-37l0-520q0-21 15-37t37-15l834 0q21 0 36 15t15 37l0 520q0 22-15 37t-36 16l-834 0z m313-469l-209 0q-21 0-36 16t-15 37 15 36 36 15l209 0q21 0 37-15t15-36-15-37-37-16z m0 209l-209 0q-21 0-36 15t-15 36 15 37 36 16l209 0q21 0 37-16t15-37-15-36-37-15z m209 25q0 105 103 105t104-105q0-104-104-104t-103 104z m103-148q57 0 93-22t37-53q0-15-37-26t-93-11q-58 0-94 11t-36 26q0 30 36 53t94 22z" horiz-adv-x="1146" />

<glyph glyph-name="location-outline" unicode="&#xe837;" d="M416 741q-128 0-221-90-91-88-91-216 0-126 91-215l221-219 223 219q90 88 90 215 0 129-90 216-93 90-223 90z m0 104q174 0 295-120t122-290-122-290l-295-290-293 290q-123 120-123 290t123 290 293 120z m0-286q-52 0-91-39t-39-92 39-92q38-37 91-37 55 0 93 37 39 39 39 92t-39 92-93 39z m0 52q75 0 129-53t54-129-54-129-129-54-128 54-54 129 54 129 128 53z" horiz-adv-x="833" />

<glyph glyph-name="location-1" unicode="&#xe838;" d="M711 725q122-120 122-290t-122-290l-295-290-293 290q-123 120-123 290t123 290 295 120 293-120z m-295-426q55 0 93 37 39 39 39 92t-39 92-93 39q-52 0-91-39t-39-92 39-92q38-37 91-37z" horiz-adv-x="833" />

<glyph glyph-name="forward-outline" unicode="&#xe839;" d="M53-53q-23 0-38 16t-15 36l0 52q0 186 118 330t298 180l0 89q0 42 32 74 30 30 74 29t73-29l328-323q15-15 15-37t-15-38l-329-322q-29-29-73-30t-73 30q-32 31-32 73l0 75q-105-7-183-48t-138-133q-16-24-42-24z m416 312l52 1 0-183 290 287-290 286 0-183q-20 0-46-2-132-15-231-103t-129-213q129 105 354 110z" horiz-adv-x="938" />

<glyph glyph-name="forward" unicode="&#xe83a;" d="M416 650q0 21 16 36t37 16 36-15l329-324-329-323q-15-15-36-15t-37 15-16 37l0 130q-132-4-234-46t-182-163l0 53q0 180 119 313t297 153l0 133z" horiz-adv-x="834" />

<glyph glyph-name="home-outline" unicode="&#xe83b;" d="M1108 422q38-30 38-80 0-42-30-73t-75-31l-51 0 0-312q0-44-31-75t-74-30l-625 0q-42 0-73 30t-31 75l0 312-52 0q-44 0-74 31t-30 73q0 46 36 79 79 66 204 174t211 181 88 75l34 29 35-29q1-1 86-75t211-181 203-173z m-430-496l0 260-209 0 0-260 209 0z m207 416l156 0q-231 194-468 400-238-206-469-400l156 0 0-416 156 0 0 312 313 0 0-312 156 0 0 416z" horiz-adv-x="1146" />

<glyph glyph-name="home" unicode="&#xe83c;" d="M521 819q322-279 500-429 20-16 20-40 0-21-15-37t-36-15l-105 0 0-364q0-21-15-37t-36-16l-156 0q-22 0-37 16t-16 37l0 208-209 0 0-208q0-21-15-37t-36-16l-156 0q-21 0-37 16t-16 37l0 364-103 0q-22 0-37 15t-16 37 19 40z" horiz-adv-x="1041" />

<glyph glyph-name="cancel-alt" unicode="&#xe83d;" d="M936-67l-521 0q-56 0-116 30t-91 77l-137 191q-13 19-29 41t-24 33-8 12q-10 14-10 33t9 32q5 5 64 88l135 190q32 46 91 76t116 31l521 0q65 0 111-46t46-110l0-521q0-65-46-111t-111-46z m-821 417q6-9 21-30t20-28l137-191q17-25 55-45t67-19l521 0q22 0 37 16t15 37l0 521q0 21-15 36t-37 15l-521 0q-30 0-67-19t-55-43l-135-190q-8-10-22-32t-21-28z m545 0l139-138q12-12 5-29t-24-16q-10 0-19 9l-137 137-138-137q-8-9-18-9-17 0-24 16t5 29l137 138-137 138q-11 12-6 25t18 18 25-6l138-138 137 138q18 17 36-1t1-36z" horiz-adv-x="1093" />

<glyph glyph-name="cancel-alt-filled" unicode="&#xe83e;" d="M911 741q54 0 92-39t38-91l0-522q0-53-38-92t-92-38l-521 0q-50 0-103 28t-82 67l-137 192q-59 83-62 86-12 17 0 35l8 11q9 13 24 34t31 42l135 190q29 40 82 68t104 29l521 0z m-120-510l-118 118 118 120q15 15 15 37t-15 37-37 15-36-15l-119-120-120 120q-15 15-37 15t-37-15-15-37 15-37l120-120-120-118q-15-15-15-37t15-37q16-16 38-16 20 0 36 16l120 119 119-119q16-16 37-16 20 0 36 16 15 15 15 37t-15 37z" horiz-adv-x="1041" />

<glyph glyph-name="pin-outline" unicode="&#xe83f;" d="M856 554q30-30 30-73t-30-75q-16-16-36-24-106-51-144-125-51-102-51-246 0-45-29-74t-75-30q-47 0-75 30l-167 169-279-199 199 279-169 168q-20 18-27 49t5 64q27 65 96 65 146 0 246 50l11 7q69 37 118 141 7 20 21 34 30 30 74 29t74-31z m-273-250q53 107 196 175l-205 211q-69-146-176-200l-13-6q-120-57-281-57l416-416q0 168 63 293z" horiz-adv-x="886" />

<glyph glyph-name="pin" unicode="&#xe840;" d="M573 37q0-23-15-38t-37-15q-21 0-37 16l-169 169-315-236 236 315-168 169q-24 23-12 56 14 32 48 32 157 0 270 57 90 45 151 171 9 24 36 32t50-13l208-209q21-23 14-50t-32-36q-127-63-172-152-56-110-56-268z" horiz-adv-x="834" />

<glyph glyph-name="colon" unicode="&#xe841;" d="M0 526c0 53 43 97 98 97 53 0 97-44 97-97 0-55-44-98-97-98-55 0-98 43-98 98z m0-352c0 54 43 98 98 98 53 0 97-44 97-98 0-55-44-97-97-97-55 0-98 42-98 97z" horiz-adv-x="195" />

<glyph glyph-name="semicolon" unicode="&#xe842;" d="M0 574c0 54 43 98 98 98 53 0 97-44 97-98 0-55-44-97-97-97-55 0-98 42-98 97z m0-534c49 24 75 54 83 102-40 8-65 40-65 78 0 49 36 85 85 85 58 0 100-47 100-112 0-83-72-169-203-164l0 11z" horiz-adv-x="203" />

<glyph glyph-name="edit-1" unicode="&#xe843;" d="M90 589l0-593 444 0 0 262 90 101 0-453-624 0 0 760 541 0-75-77-376 0z m749 180c35-34 32-88-3-124l-57-56 17 75-63 64-74-17 56 57c35 35 90 35 124 1z m-219-99c0 3 65 20 75 23l1 1 67-69c-4 0-23-75-23-75l-371-384-159-36-2 1 41 158z m-247-422l-45 46-35-6-23-22-10-40 46-45 39 9 23 23z" horiz-adv-x="864" />

<glyph glyph-name="at" unicode="&#xe844;" d="M0 340q0 197 130 334 136 144 350 144 175 0 288-98 121-105 121-278 0-135-77-233-76-97-174-97-50 0-78 31-28 31-28 65 0 1 1 4t0 5q0 1 1 5t0 6q-22-45-47-69-46-46-112-46-67 0-111 52-45 52-45 145 0 109 68 203 69 95 166 95 57 0 91-34 25-28 32-62l20 75h104l-71-260q-3-12-7-28t-5-19q-3-14-3-26 0-18 11-34 11-16 35-16 48 0 96 67 48 69 48 179 0 165-131 237-80 45-183 45-188 0-302-125-102-111-102-270 0-176 120-278 107-90 260-90 105 0 195 42 50 22 103 63l13 10q4 3 10 5t14 3 15-4 13-16q6-17 3-29t-8-19l-7-7q-77-66-169-101-92-35-189-35-229 0-355 155-104 128-104 304z m340-41q0-44 18-71 18-27 52-27 59 0 97 97 37 98 37 153 0 32-17 54-17 21-47 21-58 0-99-77-41-77-41-150z" horiz-adv-x="888.7" />

<glyph glyph-name="bullhorn" unicode="&#xe845;" d="M251 420c9 0 16 9 16 18s-7 16-16 16l-100 0c-9 0-18-7-18-16s9-18 18-18l100 0z m0-72c9 0 16 9 16 17s-7 17-16 17l-100 0c-9 0-18-8-18-17s9-17 18-17l100 0z m210-14c119 0 211-42 290-121l0 376c-78-82-171-126-290-126l0-129z m497 220l-33 34 137 136 34-32z m25-175l0 48 230 0 0-48-230 0z m-58-171l33 34 138-138-34-32z m-128 516c20 0 36-15 36-34l0-577c0-19-16-34-36-34s-35 15-35 34c-59 72-162 165-317 165l-64 0 140-236-85-62c-21-11-44 3-56 18l-174 280-94 0s-87 47-87 122 87 118 87 118l333 0c155 0 258 96 317 172 0 19 15 34 35 34z" horiz-adv-x="1213" />

<glyph glyph-name="volume-off-1" unicode="&#xe846;" d="M0 551l305 0 345 282 0-965-345 279-229 0z m713-283q0 4 2 6l76 76-76 76q-2 2-2 6t2 6l53 53q2 2 5 2t6-2l76-76 77 76q4 2 6 2t5-2l55-53q2-2 2-6t-2-6l-76-76 76-76q2-4 2-7t-2-5l-55-54q-2-2-5-2t-6 2l-77 78-76-78q-2-2-5-2t-6 2l-53 54q-2 2-2 6z" horiz-adv-x="1000" />

<glyph glyph-name="volume-down" unicode="&#xe847;" d="M0 141l0 418 236 0 358 291 0-1000-358 291-236 0z m656 37q74 74 74 174 0 104-74 180l73 74q103-106 107-256 0-144-107-246z" horiz-adv-x="836" />

<glyph glyph-name="volume" unicode="&#xe848;" d="M0 142l0 416 236 0 354 289 0-994-354 289-236 0z m652 35q73 74 73 176t-73 178l71 74q105-106 107-254 0-145-107-246z m118-119q123 119 123 295t-123 299l76 74q154-154 154-372t-154-372z" horiz-adv-x="1000" />

<glyph glyph-name="volume-up" unicode="&#xe849;" d="M0 169l0 360 203 0 307 250 0-858-307 248-203 0z m563 33q62 63 62 151t-62 152l60 65q90-90 92-219 0-125-92-213z m101-105q106 105 106 256t-106 258l66 62q131-133 131-319t-131-321z m100-98q146 147 146 354t-146 353l62 65q82-82 128-190t46-227-46-229-128-190z" horiz-adv-x="1000" />

<glyph glyph-name="folder" unicode="&#xe84a;" d="M0-52l0 715 139 0 68 90 217 0 68-90 508 0 0-715-1000 0z" horiz-adv-x="1000" />

<glyph glyph-name="folder-close" unicode="&#xe84b;" d="M0-52l0 560 1000 0 0-560-1000 0z m0 594l0 121 139 0 68 90 217 0 68-90 508 0 0-121-1000 0z" horiz-adv-x="1000" />

<glyph glyph-name="folder-open" unicode="&#xe84c;" d="M0-52l0 55 147 505 853 0-172-560-828 0z m0 205l0 510 139 0 68 90 217 0 68-90 336 0 0-121-724 0z" horiz-adv-x="1000" />

<glyph glyph-name="comment-2" unicode="&#xe84d;" d="M0 96l0 713 1000 0 0-713-473 0-320-205 0 205-207 0z" horiz-adv-x="1000" />

<glyph glyph-name="megaphone" unicode="&#xe84e;" d="M0 344l0 123q2 35 26 60t58 24l270 0q138 8 272 65t229 152q36-2 59-26t23-58l0-199q28-8 45-30t18-50q-2-30-19-51t-44-27l0-201q-1-36-26-59t-56-24q-207 184-449 211-66-33-53-127t77-142q-28-47-96-52t-105 30q-16 45-25 76t-16 71-7 78 10 72l-107 0q-35 2-60 27t-24 57z m438-10q240-44 419-183l0 508q-203-151-419-182l0-143z" horiz-adv-x="1000" />

<glyph glyph-name="cancel-circled-outline" unicode="&#xe84f;" d="M469 819q194 0 331-137t138-332-138-331-331-138-331 138-138 331 138 332 331 137z m0-834q151 0 258 107t107 258-107 258-258 107-258-107-107-258 107-258 258-107z m36 365l139-137q12-13 5-29t-24-16q-11 0-19 7l-137 139-138-139q-7-7-18-7-17 0-24 16t5 29l139 137-139 138q-18 17 1 36t36 1l138-138 137 138q18 18 37-1t1-36z" horiz-adv-x="938" />

<glyph glyph-name="cancel-circled" unicode="&#xe850;" d="M416 767q173 0 295-122t123-295-123-294-295-122-294 122-122 294 122 295 294 122z m194-537l-120 120 120 120q15 15 15 37t-15 36-37 15-37-15l-120-119-118 119q-15 15-37 15t-37-15-15-36 15-37l119-120-119-120q-15-15-15-36t15-36q16-16 36-16 21 0 38 16l118 119 120-119q17-16 37-16 21 0 37 16 15 15 15 36t-15 36z" horiz-adv-x="834" />

<glyph glyph-name="plus" unicode="&#xe851;" d="M550 400q30 0 30-50t-30-50l-210 0 0-210q0-30-50-30t-50 30l0 210-210 0q-30 0-30 50t30 50l210 0 0 210q0 30 50 30t50-30l0-210 210 0z" horiz-adv-x="580" />

<glyph glyph-name="plus-circled" unicode="&#xe852;" d="M420 770q174 0 297-123t123-297-123-297-297-123-297 123-123 297 123 297 297 123z m52-470l200 0 0 102-200 0 0 202-102 0 0-202-202 0 0-102 202 0 0-202 102 0 0 202z" horiz-adv-x="840" />

<glyph glyph-name="minus" unicode="&#xe853;" d="M550 400q30 0 30-50t-30-50l-520 0q-30 0-30 50t30 50l520 0z" horiz-adv-x="580" />

<glyph glyph-name="volume-high" unicode="&#xe854;" d="M766 492q59-59 59-142 0-81-59-140-16-16-37-16-20 0-36 16-15 15-15 37t15 36q27 27 27 67t-27 68q-15 15-15 37t15 37 36 15 37-15z m104 103q101-101 101-243 0-145-101-247-15-15-36-15-23 0-38 15t-15 37 15 37q70 70 70 172t-70 172q-15 15-15 36t15 36 37 15 37-15z m104 105q145-142 145-348 0-205-145-350-15-16-36-16t-37 16-15 36 15 37q114 114 114 277 0 161-114 275-15 15-15 36t14 37 37 15 37-15z m-446 24q38 0 68-29t29-83l0-522q0-53-29-83t-68-31q-35 0-70 24l-139 93q-29 20-78 35t-85 15q-65 0-110 45t-46 111l0 104q0 65 46 110t110 46q37 0 85 14t78 35l139 92q35 24 70 24z m-372-477q47 0 106-18t103-42l0 327q-44-25-103-42t-106-17q-21 0-37-15t-15-37l0-104q0-21 15-37t37-15z m365-157l0 522q0 1-1 3l0 3q-2-3-5-4l-99-65 0-396 99-65q3-1 5-4l0 3q1 2 1 3z" horiz-adv-x="1119" />

<glyph glyph-name="hammer" unicode="&#xe855;" d="M988-7q0-30-20-50l-60-61q-22-20-51-20-29 0-50 20l-203 204q-21 20-21 50 0 29 24 53l-143 143-70-70q-8-8-19-8t-19 8q1-1 7-7t7-7 6-6 5-8 4-8 3-9 0-10q0-21-15-38-2-1-9-10t-11-11-10-9-13-9-12-5-14-3q-23 0-38 16l-228 228q-16 15-16 38 0 7 3 14t5 12 9 13 9 10 11 11 10 9q17 15 38 15 6 0 10 0t9-3 8-4 8-5 6-6 7-7 7-7q-8 8-8 19t8 19l194 194q8 8 19 8t19-8q-1 1-7 7t-7 7-6 7-5 7-3 8-4 9 0 10q0 21 15 38 2 2 9 10t11 11 10 10 13 8 12 5 14 3q23 0 38-16l228-228q16-15 16-38 0-7-3-14t-5-12-8-13-10-10-11-11-10-9q-17-15-38-15-6 0-10 0t-9 4-8 3-7 5-7 6-7 7-7 7q8-8 8-19t-8-19l-70-70 143-143q24 24 53 24 29 0 51-21l203-202q20-22 20-51z" horiz-adv-x="1000" />

<glyph glyph-name="paper-plane" unicode="&#xe856;" d="M0 191q-2 18 14 28l937 625q8 6 18 6t18-6q15-10 13-31l-156-938q-4-13-16-21-7-4-15-4-6 0-12 2l-303 121-64-107q-10-16-28-16t-27 16l-115 201-244 97q-18 8-20 27z m98 11l189-77q2-2 5-3l3-2 527 564z m221-104l87-152 504 787z m183-62q12-2 20-4l265-108 125 748z" horiz-adv-x="1000" />

<glyph glyph-name="menu" unicode="&#xf008;" d="M68 62q0-30 21-51t51-21h793q30 0 51 21t21 51-21 51-51 21h-793q-29 0-51-21t-21-51z m0 288q0-30 21-51t51-21h793q30 0 51 21t21 51-21 51-51 21h-793q-29 0-51-21t-21-51z m0 288q0-30 21-51t51-21h793q30 0 51 21t21 51-21 51-51 21h-793q-29 0-51-21t-21-51z" horiz-adv-x="1073.2" />

<glyph glyph-name="user-2" unicode="&#xf061;" d="M0-119q0 9 1 23t11 47 27 49q17 17 68 38t115 43 93 38q38 19 59 56t20 76q0 27-32 63-33 38-53 102t-20 149q0 64 18 113t49 80 71 45 85 15 85-15 71-45 49-80 18-113q0-84-20-149t-52-102q-33-37-33-63 0-39 21-76t59-56q29-15 93-38t114-43 68-38q17-17 27-47t11-51l1-21h-1024z" horiz-adv-x="1024.9" />

<glyph glyph-name="users-1" unicode="&#xf064;" d="M0 49q20 7 60 22t69 26 50 22q37 19 57 56t21 76q0 27-31 64-19 21-33 60-45 18-45 76 0 43 14 61-5 39-9 82-5 55 26 108t84 84 110 32q43 0 85-19t73-50 48-72 14-83q-4-55-8-82 14-19 14-61 0-58-45-76-15-41-32-60-32-37-32-64 0-39 20-76t58-56q29-15 92-38t113-43 66-38q18-17 28-47t10-51l1-21h-878v168z m705 299q0 34 12 50-5 32-7 67-4 45 21 89t69 72 90 27 89-27 69-72 22-89q-2-35-8-67 12-16 12-50 0-48-36-62-12-33-27-50-9-10-13-16t-9-16-4-20q0-32 17-62t47-46q17-9 42-19t60-22 50-19v-135h-254q0 4 0 11t-3 26-7 36-15 38-23 33q-23 25-53 44t-79 37q27 34 27 78 0 10-5 20t-8 16-12 16q-14 15-27 49-37 16-37 63z" horiz-adv-x="1201.2" />

<glyph glyph-name="coffee" unicode="&#xf0f4;" d="M929 493q0 45-32 76t-76 31h-35v-214h35q45 0 76 31t32 76z m-929-429h1000q0-59-42-101t-101-42h-714q-59 0-101 42t-42 101z m1036 429q0-89-63-152t-152-62h-35v-18q0-52-37-88t-88-37h-393q-51 0-88 37t-37 88v410q0 15 11 26t25 10h642q89 0 152-63t63-151z" horiz-adv-x="1071.4" />

<glyph glyph-name="food" unicode="&#xf0f5;" d="M357 814v-357q0-34-20-62t-51-39v-435q0-29-21-50t-51-21h-71q-29 0-50 21t-22 50v435q-31 11-51 39t-20 62v357q0 15 11 25t25 11 25-11 10-25v-232q0-14 11-25t25-11 25 11 11 25v232q0 15 11 25t25 11 25-11 10-25v-232q0-14 11-25t25-11 25 11 11 25v232q0 15 10 25t25 11 26-11 10-25z m429 0v-893q0-29-21-50t-51-21h-71q-29 0-50 21t-22 50v286h-125q-7 0-12 5t-5 13v446q0 74 52 127t126 52h143q15 0 25-11t11-25z" horiz-adv-x="785.7" />

<glyph glyph-name="building" unicode="&#xf0f7;" d="M214 118v-36q0-7-5-12t-13-6h-35q-7 0-13 6t-5 12v36q0 7 5 12t13 6h35q8 0 13-6t5-12z m0 143v-36q0-7-5-13t-13-5h-35q-7 0-13 5t-5 13v36q0 7 5 12t13 6h35q8 0 13-6t5-12z m143 0v-36q0-7-5-13t-13-5h-35q-8 0-13 5t-5 13v36q0 7 5 12t13 6h35q8 0 13-6t5-12z m-143 143v-36q0-7-5-13t-13-5h-35q-7 0-13 5t-5 13v36q0 7 5 12t13 5h35q8 0 13-5t5-12z m429-286v-36q0-7-5-12t-13-6h-36q-7 0-12 6t-6 12v36q0 7 6 12t12 6h36q7 0 13-6t5-12z m-143 143v-36q0-7-5-13t-13-5h-36q-7 0-12 5t-5 13v36q0 7 5 12t12 6h36q7 0 13-6t5-12z m-143 143v-36q0-7-5-13t-13-5h-35q-8 0-13 5t-5 13v36q0 7 5 12t13 5h35q8 0 13-5t5-12z m-143 142v-35q0-7-5-13t-13-5h-35q-7 0-13 5t-5 13v35q0 8 5 13t13 5h35q8 0 13-5t5-13z m429-285v-36q0-7-5-13t-13-5h-36q-7 0-12 5t-6 13v36q0 7 6 12t12 6h36q7 0 13-6t5-12z m-143 143v-36q0-7-5-13t-13-5h-36q-7 0-12 5t-5 13v36q0 7 5 12t12 5h36q7 0 13-5t5-12z m-143 142v-35q0-7-5-13t-13-5h-35q-8 0-13 5t-5 13v35q0 8 5 13t13 5h35q8 0 13-5t5-13z m-143 143v-35q0-8-5-13t-13-5h-35q-7 0-13 5t-5 13v35q0 8 5 13t13 5h35q8 0 13-5t5-13z m429-285v-36q0-7-5-13t-13-5h-36q-7 0-12 5t-6 13v36q0 7 6 12t12 5h36q7 0 13-5t5-12z m-143 142v-35q0-7-5-13t-13-5h-36q-7 0-12 5t-5 13v35q0 8 5 13t12 5h36q7 0 13-5t5-13z m-143 143v-35q0-8-5-13t-13-5h-35q-8 0-13 5t-5 13v35q0 8 5 13t13 5h35q8 0 13-5t5-13z m286-143v-35q0-7-5-13t-13-5h-36q-7 0-12 5t-6 13v35q0 8 6 13t12 5h36q7 0 13-5t5-13z m-143 143v-35q0-8-5-13t-13-5h-36q-7 0-12 5t-5 13v35q0 8 5 13t12 5h36q7 0 13-5t5-13z m143 0v-35q0-8-5-13t-13-5h-36q-7 0-12 5t-6 13v35q0 8 6 13t12 5h36q7 0 13-5t5-13z m-143-768h214v858h-643v-858h215v125q0 8 5 13t13 5h178q7 0 13-5t5-13v-125z m286 893v-928q0-15-11-25t-25-11h-714q-15 0-25 11t-11 25v928q0 15 11 25t25 11h714q15 0 25-11t11-25z" horiz-adv-x="785.7" />

<glyph glyph-name="beer" unicode="&#xf0fc;" d="M357 350v214h-143v-143q0-29 21-50t51-21h71z m572-250v-107h-643v107l71 107h-71q-89 0-152 63t-63 151v179l-35 36 18 71h267l18 72h536l18-108-36-17v-447z" horiz-adv-x="928.6" />

<glyph glyph-name="angle-left" unicode="&#xf104;" d="M350 546q0-7-6-12l-219-220 219-219q6-6 6-13t-6-13l-28-28q-5-5-12-5t-13 5l-260 261q-6 5-6 12t6 13l260 260q5 6 13 6t12-6l28-28q6-5 6-13z" horiz-adv-x="357.1" />

<glyph glyph-name="angle-right" unicode="&#xf105;" d="M332 314q0-7-5-12l-261-261q-5-5-12-5t-13 5l-28 28q-6 6-6 13t6 13l219 219-219 220q-6 5-6 12t6 13l28 28q5 6 13 6t12-6l261-260q5-5 5-13z" horiz-adv-x="357.1" />

<glyph glyph-name="angle-up" unicode="&#xf106;" d="M600 189q0-7-6-12l-28-28q-5-6-12-6t-13 6l-220 219-219-219q-5-6-13-6t-12 6l-28 28q-6 5-6 12t6 13l260 260q5 6 12 6t13-6l260-260q6-5 6-13z" horiz-adv-x="642.9" />

<glyph glyph-name="angle-down" unicode="&#xf107;" d="M600 439q0-7-6-12l-260-261q-5-5-13-5t-12 5l-260 261q-6 5-6 12t6 13l28 28q5 6 12 6t13-6l219-219 220 219q5 6 13 6t12-6l28-28q6-5 6-13z" horiz-adv-x="642.9" />

<glyph glyph-name="bank" unicode="&#xf19c;" d="M536 850l535-214v-72h-71q0-14-11-25t-27-10h-852q-16 0-27 10t-12 25h-71v72z m-393-357h143v-429h71v429h143v-429h71v429h143v-429h72v429h143v-429h33q15 0 27-10t11-25v-36h-929v36q0 14 12 25t27 10h33v429z m890-536q16 0 27-11t11-25v-71h-1071v71q0 15 11 25t28 11h994z" horiz-adv-x="1142.9" />

<glyph glyph-name="graduation-cap" unicode="&#xf19d;" d="M990 384l10-177q2-38-46-71t-131-52-180-20-180 20-131 52-46 71l10 177 320-101q12-4 27-4t27 4z m296 180q0-12-13-17l-625-196q-2-1-5-1t-6 1l-364 115q-24-19-39-63t-19-99q35-20 35-61 0-39-32-60l32-242q1-7-4-13-5-7-14-7h-107q-8 0-13 7-6 6-5 13l33 242q-33 21-33 60 0 41 36 62 7 115 55 184l-186 58q-12 5-12 17t12 18l625 196q3 1 6 1t5-1l625-196q13-5 13-18z" horiz-adv-x="1285.7" />

<glyph glyph-name="building-filled" unicode="&#xf1ad;" d="M750 850q15 0 25-11t11-25v-928q0-15-11-25t-25-11h-714q-15 0-25 11t-11 25v928q0 15 11 25t25 11h714z m-464-161v-35q0-8 5-13t13-5h35q8 0 13 5t5 13v35q0 8-5 13t-13 5h-35q-8 0-13-5t-5-13z m0-143v-35q0-8 5-13t13-5h35q8 0 13 5t5 13v35q0 8-5 13t-13 5h-35q-8 0-13-5t-5-13z m0-142v-36q0-8 5-13t13-5h35q8 0 13 5t5 13v36q0 7-5 12t-13 5h-35q-8 0-13-5t-5-12z m0-143v-36q0-8 5-13t13-5h35q8 0 13 5t5 13v36q0 8-5 13t-13 5h-35q-8 0-13-5t-5-13z m-72-179v36q0 8-5 13t-13 5h-35q-8 0-13-5t-5-13v-36q0-8 5-13t13-5h35q8 0 13 5t5 13z m0 143v36q0 8-5 13t-13 5h-35q-8 0-13-5t-5-13v-36q0-8 5-13t13-5h35q8 0 13 5t5 13z m0 143v36q0 7-5 12t-13 5h-35q-8 0-13-5t-5-12v-36q0-8 5-13t13-5h35q8 0 13 5t5 13z m0 143v35q0 8-5 13t-13 5h-35q-8 0-13-5t-5-13v-35q0-8 5-13t13-5h35q8 0 13 5t5 13z m0 143v35q0 8-5 13t-13 5h-35q-8 0-13-5t-5-13v-35q0-8 5-13t13-5h35q8 0 13 5t5 13z m286-715v107q0 8-5 13t-13 5h-178q-8 0-13-5t-5-13v-107q0-8 5-13t13-5h178q8 0 13 5t5 13z m0 286v36q0 8-5 13t-13 5h-36q-7 0-12-5t-5-13v-36q0-8 5-13t12-5h36q8 0 13 5t5 13z m0 143v36q0 7-5 12t-13 5h-36q-7 0-12-5t-5-12v-36q0-8 5-13t12-5h36q8 0 13 5t5 13z m0 143v35q0 8-5 13t-13 5h-36q-7 0-12-5t-5-13v-35q0-8 5-13t12-5h36q8 0 13 5t5 13z m0 143v35q0 8-5 13t-13 5h-36q-7 0-12-5t-5-13v-35q0-8 5-13t12-5h36q8 0 13 5t5 13z m143-572v36q0 8-5 13t-13 5h-36q-7 0-12-5t-6-13v-36q0-8 6-13t12-5h36q8 0 13 5t5 13z m0 143v36q0 8-5 13t-13 5h-36q-7 0-12-5t-6-13v-36q0-8 6-13t12-5h36q8 0 13 5t5 13z m0 143v36q0 7-5 12t-13 5h-36q-7 0-12-5t-6-12v-36q0-8 6-13t12-5h36q8 0 13 5t5 13z m0 143v35q0 8-5 13t-13 5h-36q-7 0-12-5t-6-13v-35q0-8 6-13t12-5h36q8 0 13 5t5 13z m0 143v35q0 8-5 13t-13 5h-36q-7 0-12-5t-6-13v-35q0-8 6-13t12-5h36q8 0 13 5t5 13z" horiz-adv-x="857.1" />
</font>
</defs>
</svg>